codes/TLC.vcd
$date
	Mon Feb 10 01:58:02 2025
$end
$version
	Icarus Verilog
$end
$timescale
	1ns
$end
$scope module traffic_light_tb $end
$var wire 3 ! light_highway [2:0] $end
$var wire 3 " light_farm [2:0] $end
$var reg 1 # C $end
$var reg 1 $ clk $end
$var reg 1 % rst_n $end
$scope module dut $end
$var wire 1 # C $end
$var wire 1 $ clk $end
$var wire 1 % rst_n $end
$var parameter 2 & HGRE_FRED $end
$var parameter 2 ' HRED_FGRE $end
$var parameter 2 ( HRED_FYEL $end
$var parameter 2 ) HYEL_FRED $end
$var parameter 4 * RED_HOLD $end
$var parameter 4 + YEL_HOLD $end
$var reg 32 , counter [31:0] $end
$var reg 3 - light_farm [2:0] $end
$var reg 3 . light_highway [2:0] $end
$var reg 2 / next_State [1:0] $end
$var reg 2 0 state [1:0] $end
$upscope $end
$upscope $end
$enddefinitions $end
$comment Show the parameter values. $end
$dumpall
b11 +
b1010 *
b1 )
b11 (
b10 '
b0 &
$end
#0
$dumpvars
bx 0
bx /
bx .
bx -
bx ,
x%
0$
x#
bx "
bx !
$end
#2
b100 "
b100 -
b1 !
b1 .
b0 /
b0 ,
b0 0
0%
#10
1$
#20
0$
#22
0#
1%
#30
b1 ,
1$
#40
0$
#42
b1 /
1#
#50
b10 !
b10 .
b0 ,
b1 0
1$
#60
0$
#70
b1 ,
1$
#80
0$
#90
b10 ,
1$
#92
0#
#100
0$
#110
b10 /
b11 ,
1$
#120
0$
#130
b1 "
b1 -
b100 !
b100 .
b0 ,
b10 0
1$
#140
0$
#150
b1 ,
1$
#160
0$
#170
b10 ,
1$
#180
0$
#190
b11 ,
1$
#200
0$
#210
b100 ,
1$
#220
0$
#230
b101 ,
1$
#240
0$
#250
b110 ,
1$
#260
0$
#270
b111 ,
1$
#280
0$
#290
b1000 ,
1$
#300
0$
#310
b1001 ,
1$
#320
0$
#330
b11 /
b1010 ,
1$
#340
0$
#350
b10 "
b10 -
b0 ,
b11 0
1$
#360
0$
#370
b1 ,
1$
#380
0$
#390
b10 ,
1$
#392
b10 /
1#
#400
0$
#410
b1 "
b1 -
b0 ,
b10 0
1$
#412
0#
#420
0$
#430
b1 ,
1$
#440
0$
#450
b10 ,
1$
#460
0$
#470
b11 ,
1$
#480
0$
#490
b100 ,
1$
#500
0$
#510
b101 ,
1$
#520
0$
#530
b110 ,
1$
#540
0$
#550
b111 ,
1$
#560
0$
#570
b1000 ,
1$
#580
0$
#590
b1001 ,
1$
#600
0$
#610
b11 /
b1010 ,
1$
#620
0$
#630
b10 "
b10 -
b0 ,
b11 0
1$
#640
0$
#650
b1 ,
1$
#660
0$
#670
b10 ,
1$
#680
0$
#690
b0 /
b11 ,
1$
#700
0$
#710
b100 "
b100 -
b1 !
b1 .
b0 ,
b0 0
1$
#720
0$
#730
b1 ,
1$
#740
0$
#750
b10 ,
1$
#760
0$
#770
b11 ,
1$
#780
0$
#790
b100 ,
1$
#800
0$
#810
b101 ,
1$
#820
0$
#830
b110 ,
1$
#840
0$
#850
b111 ,
1$
#860
0$
#870
b1000 ,
1$
#880
0$
#890
b1001 ,
1$
#900
0$
#910
b1010 ,
1$
